<svg xmlns="http://www.w3.org/2000/svg" xmlns:xlink="http://www.w3.org/1999/xlink" width="800" height="800" viewBox="0 0 800 800">
  <defs>
    <clipPath id="clip-IconWebpartFormulare">
      <rect width="800" height="800"/>
    </clipPath>
  </defs>
  <g id="IconWebpartFormulare" clip-path="url(#clip-IconWebpartFormulare)">
    <rect width="800" height="800" fill="#fff"/>
    <rect id="Rechteck_1" data-name="Rechteck 1" width="800" height="800" fill="#005e90"/>
    <path id="wpforms-brands" d="M512,106.49V519.77c0,27.765-21.714,49.361-49.371,49.361H49.371C22.057,569.016,0,547.763,0,519.655V106.49C0,78.954,21.486,57.13,49.371,57.13H462.743C490.171,57.13,512,78.611,512,106.49ZM469.371,519.655V106.49a6.784,6.784,0,0,0-6.629-6.627H452.114L326.057,185.1,256,128.086,186.057,185.1,60,99.749H49.371a6.784,6.784,0,0,0-6.629,6.627V519.655a6.784,6.784,0,0,0,6.629,6.627H462.743a6.633,6.633,0,0,0,6.629-6.627ZM171.657,233.091v42.276h-84V233.091Zm0,85.01v42.619h-84V318.1ZM184.343,149.8l61.714-49.932H110.629Zm240,83.3v42.276h-224V233.091Zm0,85.01v42.619h-224V318.1ZM327.657,149.8l73.714-49.932H266.057l61.6,49.932Zm96.686,253.543v42.619h-113.6V403.338Z" transform="translate(144.039 86.87)" fill="#fff"/>
  </g>
</svg>
